…
which is now the first four observations of the clean data. Also note that the tidytext package makes all words lowercase. This is a standard preprocessing technique in text analysis as we want words such as ‘the’ and ‘The’ to be treated as the same observation.

It is also standard practice to remove what are referred to as stop words. There is no single agreed upon labeling for stop words, but a common list of them is shown below. The motivation behind what qualifies as a stop word are words that occur with such high frequency they provide little value to conveying useful information or context. It’s worth pointing out that context does matter when removing stop words.

#load stop words from tidytext
SMART_stop_words <- stop_words %>% 
  filter(lexicon == "SMART")

SMART_stop_words

## # A tibble: 571 x 2
##    word        lexicon
##    <chr>       <chr>  
##  1 a           SMART  
##  2 a's         SMART  
##  3 able        SMART  
##  4 about       SMART  
##  5 above       SMART  
##  6 according   SMART  
##  7 accordingly SMART  
##  8 across      SMART  
##  9 actually    SMART  
## 10 after       SMART  
## # ... with 561 more rows

After removing the stop words below, we note that the overall data reduced from 17246 observations to 7636 observations.

#remove stop words
LOG_reduced <- LOG_clean %>%
  anti_join(SMART_stop_words, by = c("lyrics" = "word")) 

LOG_reduced

## # A tibble: 7,636 x 3
##    album           title        lyrics    
##    <chr>           <chr>        <chr>     
##  1 Burn the Priest Bloodletting archaic   
##  2 Burn the Priest Bloodletting methods   
##  3 Burn the Priest Bloodletting transfer  
##  4 Burn the Priest Bloodletting face      
##  5 Burn the Priest Bloodletting mass      
##  6 Burn the Priest Bloodletting denial    
##  7 Burn the Priest Bloodletting bitterness
##  8 Burn the Priest Bloodletting fuels     
##  9 Burn the Priest Bloodletting mode      
## 10 Burn the Priest Bloodletting escape    
## # ... with 7,626 more rows
…
